{
    "BC:6A:29:AB:D4:87": {
        "f000aa00-0451-4000-b000-000000000000": "IR temperature service UUID",
        "f000aa01-0451-4000-b000-000000000000": "IR temperature data UUID",
        "f000aa02-0451-4000-b000-000000000000": "IR temperature config UUID",
        "f000aa10-0451-4000-b000-000000000000": "Accelerometer service UUID",
        "f000aa11-0451-4000-b000-000000000000": "Accelerometer data UUID",
        "f000aa12-0451-4000-b000-000000000000": "Accelerometer config UUID",
        "f000aa13-0451-4000-b000-000000000000": "Accelerometer period UUID",
        "f000aa20-0451-4000-b000-000000000000": "Humidity service UUID",
        "f000aa21-0451-4000-b000-000000000000": "Humidity data UUID",
        "f000aa22-0451-4000-b000-000000000000": "Humidity config UUID",
        "f000aa30-0451-4000-b000-000000000000": "Magnetometer service UUID",
        "f000aa31-0451-4000-b000-000000000000": "Magnetometer data UUID",
        "f000aa32-0451-4000-b000-000000000000": "Magnetometer config UUID",
        "f000aa33-0451-4000-b000-000000000000": "Magnetometer period UUID",
        "f000aa40-0451-4000-b000-000000000000": "Barometer service UUID",
        "f000aa41-0451-4000-b000-000000000000": "Barometer data UUID",
        "f000aa42-0451-4000-b000-000000000000": "Barometer config UUID",
        "f000aa43-0451-4000-b000-000000000000": "Barometer calibration UUID",
        "f000aa50-0451-4000-b000-000000000000": "Gyroscope service UUID",
        "f000aa51-0451-4000-b000-000000000000": "Gyroscope data UUID",
        "f000aa52-0451-4000-b000-000000000000": "Gyroscope config UUID",
        "0000ffe0-0000-1000-8000-00805f9b34fb": "botones service",
        "0000ffe1-0000-1000-8000-00805f9b34fb": "botones data"
    },
    "E0:C7:9D:63:58:64": {
        "0000aa10-0000-1000-8000-00805f9b34fb": "Accelerometer service UUID",
        "0000aa11-0000-1000-8000-00805f9b34fb": "Accelerometer data UUID",
        "0000aa12-0000-1000-8000-00805f9b34fb": "Accelerometer config UUID",
        "0000aa13-0000-1000-8000-00805f9b34fb": "Accelerometer period UUID"
    }
}